[gd_scene load_steps=16 format=2]

[ext_resource path="res://assets/player/run/player-run-3.png" type="Texture" id=1]
[ext_resource path="res://assets/player/run/player-run-2.png" type="Texture" id=2]
[ext_resource path="res://assets/player/idle/player-idle-4.png" type="Texture" id=3]
[ext_resource path="res://assets/player/run/player-run-1.png" type="Texture" id=4]
[ext_resource path="res://assets/player/idle/player-idle-3.png" type="Texture" id=5]
[ext_resource path="res://assets/player/hurt/player-hurt-2.png" type="Texture" id=6]
[ext_resource path="res://Player_click.gd" type="Script" id=7]
[ext_resource path="res://assets/player/run/player-run-4.png" type="Texture" id=8]
[ext_resource path="res://assets/player/idle/player-idle-1.png" type="Texture" id=9]
[ext_resource path="res://assets/player/hurt/player-hurt-1.png" type="Texture" id=10]
[ext_resource path="res://assets/player/idle/player-idle-2.png" type="Texture" id=11]
[ext_resource path="res://assets/player/run/player-run-6.png" type="Texture" id=12]
[ext_resource path="res://assets/player/run/player-run-5.png" type="Texture" id=13]

[sub_resource type="SpriteFrames" id=1]
animations = [ {
"frames": [ ExtResource( 9 ), ExtResource( 11 ), ExtResource( 5 ), ExtResource( 3 ) ],
"loop": true,
"name": "idle",
"speed": 8.0
}, {
"frames": [ ExtResource( 4 ), ExtResource( 2 ), ExtResource( 1 ), ExtResource( 8 ), ExtResource( 13 ), ExtResource( 12 ) ],
"loop": true,
"name": "run",
"speed": 8.0
}, {
"frames": [ ExtResource( 10 ), ExtResource( 6 ) ],
"loop": true,
"name": "hurt",
"speed": 8.0
} ]

[sub_resource type="RectangleShape2D" id=2]
extents = Vector2( 14.4082, 17.2065 )

[node name="Player" type="Area2D"]
script = ExtResource( 7 )
__meta__ = {
"_edit_group_": true
}

[node name="AnimatedSprite" type="AnimatedSprite" parent="."]
position = Vector2( 0, 0.88857 )
scale = Vector2( 1.5, 1.5 )
frames = SubResource( 1 )
animation = "hurt"
frame = 1
offset = Vector2( 0, -5 )

[node name="CollisionShape2D" type="CollisionShape2D" parent="."]
shape = SubResource( 2 )
[connection signal="area_entered" from="." to="." method="_on_Player_area_entered"]
